"Id","SalePrice"
1461,114292.691697659
1462,162166.408246509
1463,179406.843172453
1464,197515.574344712
1465,205983.672564779
1466,169779.559037724
1467,178668.732299231
1468,162663.901964918
1469,200673.270327951
1470,117809.385505996
1471,191354.641620632
1472,92776.774468419
1473,91541.770461794
1474,147434.847569246
1475,107901.56308175
1476,350284.938924623
1477,259045.524367087
1478,295142.598066279
1479,300466.714986136
1480,446226.732166831
1481,331842.598158462
1482,227254.767553315
1483,182654.161134953
1484,167196.68638924
1485,194197.130912069
1486,197027.008215906
1487,324449.244963724
1488,237518.669849002
1489,196606.368671824
1490,228501.942682691
1491,199860.03491487
1492,93788.7686968747
1493,193144.283205977
1494,303323.46139025
1495,297280.174771662
1496,227812.309001371
1497,180949.562217951
1498,166406.490748227
1499,163671.146563404
1500,158898.438936681
1501,176931.096269321
1502,145951.02506014
1503,280781.210502968
1504,241692.631641223
1505,223793.024336658
1506,198746.251565698
1507,241627.008934891
1508,201224.611721249
1509,159585.561969951
1510,144461.112276972
1511,145572.177967598
1512,177439.774989276
1513,144578.768410947
1514,154258.328411755
1515,188059.613909237
1516,155351.662792485
1517,176831.745574004
1518,133989.05801053
1519,209887.774799069
1520,129791.070592789
1521,129111.471206984
1522,177207.721482579
1523,110588.011275622
1524,124163.080965075
1525,116335.848893827
1526,116671.918436617
1527,105784.37373023
1528,139988.372613586
1529,148186.089447673
1530,186431.85284209
1531,110109.397330448
1532,99265.1470100456
1533,160576.54607847
1534,122570.879721026
1535,150997.677344388
1536,110297.38408271
1537,65766.5671967817
1538,156934.68795118
1539,198063.140609769
1540,100140.303051436
1541,140047.447815925
1542,141953.96796467
1543,184771.760746619
1544,91473.3833939335
1545,119884.75598466
1546,139049.763529618
1547,132741.36498655
1548,139924.81833173
1549,118934.33904182
1550,135426.073151769
1551,111676.413895922
1552,133628.725461949
1553,151301.039173827
1554,119561.946104035
1555,165639.825997602
1556,90646.6019689836
1557,106935.613575439
1558,96901.7560558774
1559,85541.0644547776
1560,135090.18160451
1561,129454.804589928
1562,132345.099907227
1563,119438.613283431
1564,166279.049945493
1565,150691.534098231
1566,242108.199629749
1567,76936.7177038451
1568,241610.087613655
1569,129072.748116481
1570,143218.692702698
1571,126199.857845844
1572,143467.164073658
1573,221049.593647883
1574,130045.906403164
1575,233027.238957471
1576,252278.881022813
1577,181925.150564755
1578,145645.587757102
1579,147585.243359652
1580,193357.346992551
1581,162603.630644231
1582,124073.786139213
1583,296507.456863805
1584,215577.614028629
1585,141136.216136987
1586,61011.5931287631
1587,99937.50061134
1588,149378.725171159
1589,98354.1094829801
1590,137069.85597889
1591,96299.6327447586
1592,114913.566974133
1593,120888.386409107
1594,130206.922531866
1595,111546.845904147
1596,228892.490083383
1597,197278.639762715
1598,234904.283156451
1599,172163.979251736
1600,173611.364573012
1601,62366.6614534189
1602,104446.081479934
1603,76415.8906738381
1604,268780.740894725
1605,246816.193922807
1606,174385.304441759
1607,178337.512917131
1608,221296.037029398
1609,186304.355966367
1610,149232.196078793
1611,145877.320896416
1612,171710.332641807
1613,163176.74194205
1614,122492.390703446
1615,90900.7026190426
1616,78279.0181606012
1617,89870.5921060642
1618,119301.194654362
1619,137096.910179968
1620,167919.004045968
1621,133525.909975497
1622,138860.806810549
1623,268356.442989691
1624,216381.374407779
1625,114682.264279186
1626,170648.748692928
1627,185100.178543768
1628,276646.991656906
1629,182073.172808282
1630,343209.80163495
1631,237669.175707821
1632,257921.135201326
1633,171665.74142378
1634,184481.844734732
1635,178440.868192812
1636,155729.661176927
1637,197908.267062821
1638,184792.576575772
1639,183452.903938542
1640,250950.319896698
1641,182766.388484232
1642,241415.666350834
1643,214895.456412344
1644,232374.764345689
1645,203356.601421961
1646,158760.163536063
1647,155982.159822837
1648,129925.423546036
1649,142004.675274428
1650,109319.662646953
1651,117275.731791829
1652,95907.3385575179
1653,98861.0944818337
1654,141106.918059386
1655,136174.695701322
1656,140948.298385042
1657,145935.241576038
1658,143135.2046781
1659,112514.502765679
1660,152623.266376448
1661,421794.690883121
1662,375747.421032441
1663,356770.764183346
1664,463763.747348131
1665,289813.640679436
1666,323329.436347432
1667,360611.303398468
1668,320957.261158949
1669,298432.74075485
1670,326142.516294185
1671,265019.35425195
1672,391882.572668969
1673,297970.060804563
1674,245492.825259402
1675,204208.106350764
1676,203845.120567655
1677,228978.206264098
1678,428580.220768612
1679,366692.557807479
1680,322228.377241628
1681,241757.685092488
1682,308557.013382194
1683,191477.259482686
1684,176389.908095493
1685,177247.810053537
1686,174715.22220986
1687,173582.809312809
1688,191969.446088
1689,194175.116713145
1690,198698.37471084
1691,188858.758464037
1692,254664.178964268
1693,173564.87403683
1694,180709.327297895
1695,162743.468894378
1696,265408.586204102
1697,168786.056172173
1698,347176.748458909
1699,318308.847056592
1700,252667.90626215
1701,279556.530982158
1702,243160.821553414
1703,247306.506816999
1704,273560.982481875
1705,236114.084511099
1706,382234.341526626
1707,208170.758423069
1708,202203.256238859
1709,264203.994525515
1710,221898.813153287
1711,263527.403970203
1712,257942.724799046
1713,261782.896613492
1714,223485.843219565
1715,209045.178460263
1716,180592.010571561
1717,179438.017966641
1718,139668.621190437
1719,208306.185394244
1720,229603.508302585
1721,157453.921987181
1722,124464.093278552
1723,149294.090059647
1724,205415.493858288
1725,236594.341462219
1726,190190.628998134
1727,159018.607181251
1728,168070.399035616
1729,165091.603810934
1730,159898.560729491
1731,123604.201002888
1732,119529.820749764
1733,110652.224104786
1734,115974.448735115
1735,122563.006285426
1736,108567.175323879
1737,282373.407174689
1738,264648.441556756
1739,233691.323037324
1740,215100.474273552
1741,184083.909211394
1742,173760.772046597
1743,182499.49249941
1744,303400.278910862
1745,217459.597436196
1746,190726.995699329
1747,219120.133419017
1748,218385.906475032
1749,146377.149621584
1750,128606.560820588
1751,256526.981083989
1752,114238.951335446
1753,153616.079926142
1754,194544.240068847
1755,169043.195492607
1756,121543.99045538
1757,117503.318863634
1758,141213.46787109
1759,164978.938298726
1760,167352.088842991
1761,147982.309490704
1762,173141.291068043
1763,192509.922614914
1764,114324.746860093
1765,165860.430339707
1766,187124.869296766
1767,227356.943820628
1768,139132.607180044
1769,175761.336702198
1770,156880.04550661
1771,122055.712129644
1772,137124.814774053
1773,120517.169239808
1774,151400.554798446
1775,144142.253394582
1776,122381.098801804
1777,102876.336096067
1778,144034.442873817
1779,113251.200649391
1780,180291.891913334
1781,126394.386235018
1782,82831.739065158
1783,140122.822477116
1784,101892.702067385
1785,122042.877669351
1786,141309.713857212
1787,163230.504479792
1788,58047.3545493092
1789,98503.5884093578
1790,76807.0525525556
1791,185422.074464924
1792,158343.428316815
1793,132933.419463018
1794,161847.279602411
1795,134311.102855732
1796,118759.993483534
1797,111655.662875354
1798,122360.588120892
1799,110618.32164776
1800,133345.972295073
1801,125585.854852912
1802,134860.861796783
1803,148767.157044039
1804,147624.827852995
1805,136712.497263888
1806,131789.731144824
1807,136245.074884163
1808,127230.334466018
1809,121888.839154579
1810,135080.621404098
1811,92013.2930100177
1812,99652.647434243
1813,122286.943694098
1814,91597.6945777749
1815,51219.5954847114
1816,97906.2638749467
1817,109936.890962946
1818,147943.054589492
1819,125453.127785369
1820,68256.9200798276
1821,113663.084122163
1822,149553.792094784
1823,52550.0046348787
1824,132425.177669851
1825,132867.475685022
1826,105564.265855922
1827,105274.644193388
1828,136485.310520264
1829,132650.296720118
1830,146300.309408836
1831,150331.766039474
1832,73384.8809953125
1833,132990.294894953
1834,117820.552847711
1835,126586.467603581
1836,120147.346926763
1837,85132.2620565989
1838,125894.664366256
1839,95426.5521071573
1840,150659.378910556
1841,143916.328144489
1842,94783.7487174805
1843,127731.25335464
1844,139791.803226622
1845,143587.33623816
1846,155795.842084459
1847,173674.459724207
1848,47966.6737882366
1849,105888.680205913
1850,119240.297435914
1851,158539.923207708
1852,126303.569110047
1853,128423.333658375
1854,168378.941514336
1855,159347.646388225
1856,224486.672606782
1857,134937.770860749
1858,130730.119575533
1859,116775.536466728
1860,146063.178705291
1861,115937.875620537
1862,310218.118634737
1863,288616.653131711
1864,288727.065092914
1865,315254.71651395
1866,297309.708362254
1867,222000.973838471
1868,276461.940730378
1869,203759.956756568
1870,221514.10285381
1871,245145.114834418
1872,177788.633988711
1873,247803.867746183
1874,148013.682088229
1875,203788.363618584
1876,196607.478039783
1877,209461.77631061
1878,204358.246510152
1879,129402.023879615
1880,129848.41405296
1881,238510.085755711
1882,246638.147106169
1883,186087.438973019
1884,202788.606000966
1885,237846.597445538
1886,272100.594942545
1887,218318.60946696
1888,263046.877617558
1889,169923.380694858
1890,121231.29468375
1891,136849.98417028
1892,94655.0998181001
1893,133654.393470189
1894,130007.001544713
1895,140707.29989625
1896,123805.554125961
1897,115202.739252515
1898,114087.766097037
1899,162421.296931847
1900,151309.601534062
1901,168106.145601723
1902,152288.065464648
1903,213290.69784134
1904,143371.43555609
1905,207106.646358596
1906,145957.562735074
1907,216881.907290579
1908,108621.169666062
1909,133863.277601742
1910,119591.792358215
1911,228148.673351393
1912,351959.209231478
1913,133308.625466303
1914,67749.1666223807
1915,296693.596308525
1916,53059.3137711346
1917,250007.413008474
1918,139037.741233869
1919,185314.547820986
1920,162433.054593287
1921,336889.56091585
1922,293807.270005676
1923,241910.693283497
1924,234730.085648365
1925,196426.814871936
1926,338573.276795809
1927,134487.855663547
1928,158449.734971836
1929,127093.078155897
1930,130888.231829238
1931,139215.366105557
1932,136267.918308584
1933,174714.658464034
1934,177697.403590464
1935,167117.095548035
1936,191408.257502322
1937,182541.280190255
1938,178997.826411275
1939,254693.241980434
1940,201799.572768564
1941,166281.825229636
1942,190941.958066504
1943,227657.078275954
1944,355177.341973579
1945,373158.649653454
1946,145224.624064098
1947,310642.836071885
1948,176276.997554215
1949,242033.894006613
1950,189054.992819456
1951,252849.433617585
1952,215418.455680534
1953,169196.426544838
1954,189466.662019358
1955,135237.304885818
1956,298175.317304873
1957,156026.813130476
1958,279083.902248553
1959,147310.332334622
1960,112037.83569114
1961,117964.1691181
1962,94994.4304669701
1963,101682.301611787
1964,103276.140591283
1965,142928.243302155
1966,133645.329672235
1967,291298.936524121
1968,391683.739530968
1969,362647.461010254
1970,382499.177142492
1971,456594.390032661
1972,366260.038230077
1973,289458.450149244
1974,317948.308166474
1975,539111.696844702
1976,276738.296643762
1977,344407.987302248
1978,340587.805043317
1979,335141.010820492
1980,220367.051491267
1981,329623.460050027
1982,229189.280134898
1983,219710.043388612
1984,180848.905813892
1985,219631.925362397
1986,215556.407971887
1987,185774.31040743
1988,175122.700085334
1989,194776.602834571
1990,210255.89166195
1991,242561.405684707
1992,215424.230992601
1993,167949.516612092
1994,226364.378090755
1995,184910.437798619
1996,257852.574490304
1997,308844.775566014
1998,311704.344220454
1999,278233.606822376
2000,325390.405845882
2001,294876.094692454
2002,238463.271333983
2003,260113.486300026
2004,288350.760720858
2005,221586.982528995
2006,228625.072251949
2007,255194.27627268
2008,218453.011772585
2009,200224.744325412
2010,198321.701976808
2011,142720.255712287
2012,173510.144334667
2013,177563.356819948
2014,187231.762147621
2015,212021.513785701
2016,190900.001322442
2017,197716.75055011
2018,113970.606955135
2019,131965.847468108
2020,104955.41006504
2021,99926.574412335
2022,191143.330476097
2023,143942.912937748
2024,278992.197454321
2025,351396.608579837
2026,177789.200763563
2027,160906.988111149
2028,152570.676203041
2029,166305.702362534
2030,263499.257488774
2031,229105.614268356
2032,241207.860517033
2033,250183.946990281
2034,174606.688962899
2035,222118.690358405
2036,205603.371550752
2037,207811.201047878
2038,331196.854715332
2039,233516.636215321
2040,281052.744141355
2041,308544.605971005
2042,204929.461919886
2043,181594.797102911
2044,166594.245119319
2045,215608.251832601
2046,144563.240727871
2047,141356.817268909
2048,138426.243832882
2049,148708.176409116
2050,173791.086808354
2051,99618.0379270823
2052,125173.112987095
2053,147976.303836607
2054,89758.600270991
2055,156747.562044387
2056,153353.763055652
2057,111298.348925781
2058,216470.289959044
2059,133646.461261479
2060,174120.183093673
2061,171950.716810352
2062,126454.699464132
2063,120443.872840788
2064,136595.596625567
2065,118705.259737998
2066,172081.275593055
2067,112097.150313775
2068,149323.656281445
2069,82002.6079895841
2070,114294.443679677
2071,86179.5148015057
2072,133090.296153
2073,130456.279309323
2074,181821.72268731
2075,150095.255966822
2076,111126.495798617
2077,160292.51613568
2078,125156.649213364
2079,133884.058880621
2080,116622.367993211
2081,121650.662279218
2082,127270.241193337
2083,148558.139169556
2084,107808.282574098
2085,117953.860367495
2086,116911.663395199
2087,126996.640247799
2088,97179.3364036517
2089,76992.729275291
2090,128910.54908354
2091,106039.897410847
2092,122521.541152195
2093,118767.499924816
2094,113964.141225144
2095,140241.954353411
2096,84807.8344902457
2097,101749.986996052
2098,141471.204087885
2099,51888.9857923784
2100,76681.9947605642
2101,112330.706107491
2102,130577.098105562
2103,100377.325076429
2104,144516.606370261
2105,129599.88498692
2106,62770.2645618205
2107,195988.414298265
2108,115914.892347521
2109,111196.417581159
2110,129121.6283124
2111,150935.835858953
2112,139020.980003383
2113,125428.695889742
2114,131248.657252101
2115,168213.756122694
2116,121265.753745107
2117,149919.234049594
2118,123543.319200179
2119,120412.514998952
2120,117876.244964715
2121,84604.3406947869
2122,116769.778425129
2123,80454.9961734387
2124,162078.628936645
2125,124038.303374696
2126,151047.785031836
2127,168273.635546925
2128,126295.552070609
2129,82201.3857279753
2130,124354.423207272
2131,143241.007615605
2132,116194.859819
2133,115841.63145231
2134,114281.158707827
2135,83506.5006554142
2136,76187.9291369249
2137,106333.684006703
2138,135678.014629824
2139,152364.485473265
2140,143028.43096256
2141,159622.608448706
2142,125673.194695582
2143,146694.602038834
2144,125956.755875012
2145,141547.0136996
2146,169050.414247315
2147,143496.704577871
2148,144313.769580274
2149,152474.612651461
2150,238537.180184395
2151,116831.159409714
2152,167849.761549588
2153,164429.199593413
2154,108543.522019104
2155,139344.213374607
2156,245816.705386935
2157,230035.80747933
2158,238005.328137752
2159,217056.788096935
2160,188280.675058876
2161,238318.266544271
2162,344872.292254229
2163,336292.337027944
2164,243894.570459675
2165,202276.865364261
2166,153498.326715206
2167,217262.252078691
2168,198525.010317424
2169,196046.088216816
2170,220383.494899611
2171,154113.998276987
2172,136679.071492263
2173,167743.742891835
2174,224720.402204611
2175,290690.586622844
2176,291836.229763545
2177,235874.91253056
2178,218310.172404949
2179,138641.154521703
2180,213391.592217805
2181,201729.499478692
2182,227306.293199272
2183,198442.900433265
2184,117506.591238003
2185,125476.809892649
2186,149360.06127654
2187,156124.239809204
2188,158226.782950363
2189,298047.401282885
2190,75701.2909979984
2191,81935.2348446745
2192,92459.8732040475
2193,109327.505650567
2194,107083.869022095
2195,105048.3852768
2196,100579.293733696
2197,119834.91593768
2198,161519.833771973
2199,189292.318418021
2200,146383.452499556
2201,146414.389406051
2202,219977.546553819
2203,138309.896751342
2204,175465.937642043
2205,123500.379065061
2206,138931.205926702
2207,206222.871517339
2208,283897.9624384
2209,247348.378414161
2210,117836.511799591
2211,112664.392234307
2212,112953.864133006
2213,99961.1091385211
2214,119515.536976019
2215,93831.9008616584
2216,140865.818547853
2217,56339.2093853248
2218,83846.2319801376
2219,79275.5840572872
2220,71854.9846682622
2221,298254.583094411
2222,270568.073993665
2223,276595.806551637
2224,208608.521141813
2225,125070.441710142
2226,178328.240462875
2227,198253.89188356
2228,255904.407377098
2229,258866.284495109
2230,147848.957770295
2231,215487.747150578
2232,177756.328200714
2233,187641.998022112
2234,238778.226734489
2235,212598.57190138
2236,258969.255175309
2237,294063.429960267
2238,195773.271101521
2239,111292.147605257
2240,154313.362584221
2241,148718.833403954
2242,118955.866765321
2243,127779.525681429
2244,102895.75263338
2245,94999.2332366878
2246,147471.342082285
2247,115624.042712304
2248,118434.549528224
2249,117357.025939572
2250,124612.473177946
2251,103111.576915476
2252,181562.343874443
2253,153273.735961663
2254,176014.834656062
2255,183075.343745121
2256,174096.183419402
2257,202844.857127874
2258,163576.227963113
2259,172991.928583869
2260,139970.737492916
2261,203746.302505183
2262,222495.327756698
2263,364753.898380803
2264,503564.933843639
2265,172405.545785917
2266,295705.75894294
2267,347356.008787657
2268,415407.449679231
2269,153701.884048388
2270,195693.587512476
2271,214372.924812976
2272,203316.436292901
2273,160053.313995108
2274,176244.83654192
2275,162696.967845461
2276,196437.637859631
2277,188842.865980604
2278,144033.168133001
2279,122714.732235203
2280,118235.220082147
2281,166426.829871241
2282,187317.175000967
2283,105943.150726073
2284,111357.066745948
2285,137166.306477391
2286,122762.146326302
2287,356348.428493945
2288,284397.588838909
2289,365925.245271154
2290,434334.327324561
2291,329834.139095034
2292,420763.822248077
2293,440802.264536777
2294,378609.65427883
2295,481756.378552367
2296,294473.06248709
2297,339917.092298407
2298,328073.168613341
2299,347454.404235082
2300,322464.03450664
2301,312467.159782431
2302,258526.018393744
2303,260864.503616009
2304,267184.50416931
2305,209298.827399051
2306,200356.08371146
2307,211039.085037989
2308,235061.075255784
2309,280730.274541188
2310,231261.395586377
2311,209367.855208322
2312,180050.160642926
2313,170773.559429416
2314,178954.921998544
2315,183445.880661898
2316,208034.71147959
2317,196501.408321631
2318,185324.973251959
2319,186800.577008209
2320,191460.903659905
2321,233613.476047808
2322,187021.784860989
2323,193127.904062809
2324,181152.09820381
2325,226899.585128297
2326,175957.128847015
2327,203182.234090537
2328,219049.334449401
2329,192619.521025626
2330,179855.799995045
2331,350040.045465559
2332,379110.12450755
2333,320059.464852175
2334,266103.702326616
2335,285488.451025838
2336,303813.882445083
2337,203699.201800115
2338,263122.078016192
2339,224980.082500627
2340,378583.504774497
2341,229883.079875843
2342,242723.808163482
2343,231749.866441393
2344,213348.442545694
2345,237205.136832118
2346,222891.745313694
2347,203239.788132713
2348,250007.420267517
2349,182435.078121494
2350,305261.978799528
2351,262021.185553423
2352,257699.384826098
2353,241003.56668046
2354,142573.169408521
2355,148166.619026833
2356,147092.310319679
2357,189564.25819718
2358,196384.217254814
2359,135050.783062662
2360,111937.179293993
2361,140760.958326062
2362,270888.700405393
2363,130200.960538013
2364,153680.666400816
2365,219067.817476039
2366,199528.62993333
2367,231745.334844395
2368,209960.964144182
2369,225485.245368574
2370,167787.784215165
2371,165810.71088154
2372,192686.961206162
2373,281368.951256791
2374,297190.139683721
2375,249638.873524798
2376,283992.586350328
2377,339851.75126542
2378,143764.916735763
2379,194739.770327709
2380,152977.747851284
2381,164671.082221711
2382,206451.385349604
2383,204221.36610764
2384,241899.451126637
2385,162784.959324708
2386,129966.526028245
2387,135412.903685198
2388,106311.576631351
2389,119963.517176944
2390,144720.460201762
2391,138840.974174814
2392,116494.692676318
2393,167637.821485056
2394,143482.715911994
2395,206084.638519704
2396,148045.008245061
2397,229097.19203671
2398,124083.617526616
2399,67488.964340012
2400,62096.9826239623
2401,115117.98243896
2402,139175.138981808
2403,147655.799123131
2404,156046.289071326
2405,162086.139632555
2406,138658.832919544
2407,122308.282112227
2408,148895.105664562
2409,123141.749578676
2410,172986.310098694
2411,110880.825439072
2412,151592.373969314
2413,130752.702310997
2414,158978.518956098
2415,137715.108106222
2416,127349.659084912
2417,136338.709743605
2418,133372.660707105
2419,122577.349321534
2420,118500.655560377
2421,154518.570031162
2422,104443.319023406
2423,115447.496248895
2424,160431.146511023
2425,196190.9199853
2426,123666.967876159
2427,134357.555395584
2428,182789.804508223
2429,114653.578130159
2430,134376.796551657
2431,105632.780997789
2432,149485.162045467
2433,142768.854701445
2434,137838.219036515
2435,153611.260360793
2436,101691.869923776
2437,106340.704933277
2438,118621.596947689
2439,105763.308314137
2440,121857.600760426
2441,92896.4553497982
2442,97415.033737636
2443,128348.089514476
2444,131119.728671705
2445,92730.3979335736
2446,143722.395090965
2447,191223.593147042
2448,129170.94537966
2449,111883.961421551
2450,152301.786905303
2451,114374.759281202
2452,188670.182906287
2453,90662.4043954932
2454,117419.959855268
2455,113806.942540162
2456,137492.844042559
2457,131968.1564516
2458,132837.189511392
2459,112448.678456862
2460,145412.449037319
2461,135571.476087662
2462,136272.401489275
2463,133191.75112916
2464,175274.749497575
2465,144769.595675114
2466,109911.833458254
2467,132637.456897499
2468,85744.0296735228
2469,83585.7308645578
2470,178928.433715457
2471,200457.292163845
2472,151214.136069307
2473,110340.732503029
2474,79311.0878835468
2475,217408.927300585
2476,113510.921116828
2477,130028.346371798
2478,153443.687136784
2479,106798.375130093
2480,159779.557399596
2481,125083.581910741
2482,127324.012977037
2483,110261.328668747
2484,120837.071593861
2485,124294.610613577
2486,151412.743689661
2487,159135.040212405
2488,166877.864384965
2489,149752.111671064
2490,142472.143862944
2491,90545.4297304463
2492,197249.76748461
2493,157409.936090152
2494,144321.562398063
2495,89683.2140473679
2496,239812.385035757
2497,156486.887699567
2498,104752.385990521
2499,84139.9127481446
2500,122351.246431461
2501,139362.678420914
2502,144369.640548677
2503,99989.2695340871
2504,184391.226969169
2505,221683.006087027
2506,252649.025302467
2507,298257.726745445
2508,254344.459343285
2509,223309.818539985
2510,220230.848481275
2511,174588.299932102
2512,203902.175997584
2513,231443.884285933
2514,267695.381711492
2515,145293.034255324
2516,179678.079642337
2517,145184.960189382
2518,154409.893434231
2519,231747.354108218
2520,216694.784004068
2521,188306.847706607
2522,223438.682455934
2523,115850.062531967
2524,138256.487181479
2525,147043.636058745
2526,140233.740846172
2527,122480.581727185
2528,121585.947429582
2529,128606.09574387
2530,120237.203168733
2531,247769.313734137
2532,223717.992730705
2533,191476.598952184
2534,234574.560331747
2535,286735.203278318
2536,233601.331051118
2537,241400.994332138
2538,186227.367931555
2539,188665.202133108
2540,185642.412216486
2541,182147.852047939
2542,164188.761644624
2543,123276.574091571
2544,120082.38199396
2545,140897.448162841
2546,128423.391922522
2547,142927.335725223
2548,160011.392213035
2549,158183.824077419
2550,697527.082942715
2551,143206.705053289
2552,125594.081902434
2553,73033.8002950587
2554,97403.46758977
2555,117018.382797071
2556,94431.8124148121
2557,100047.388889535
2558,139242.854724478
2559,142343.399557662
2560,151705.050950116
2561,145579.596789837
2562,137278.097327226
2563,149088.057117994
2564,201358.117751171
2565,131748.31639046
2566,165399.644406871
2567,139665.335442629
2568,213263.592262956
2569,226237.68365122
2570,116534.348656527
2571,196882.732396834
2572,153995.82771909
2573,228247.112208617
2574,336419.202500698
2575,124568.42608985
2576,115859.115290576
2577,123848.130875323
2578,83030.6188940796
2579,55545.8593497505
2580,102325.314285862
2581,111837.686589598
2582,121808.810566231
2583,305753.356192699
2584,190495.867855128
2585,187120.837141963
2586,223782.440468092
2587,201300.46123286
2588,146847.570929837
2589,147627.560696139
2590,206600.039386601
2591,238264.087098609
2592,218307.789700066
2593,252334.962706965
2594,190967.35184696
2595,197428.103339216
2596,283963.362086289
2597,177956.210759729
2598,284228.166849875
2599,320293.511076693
2600,157951.934703989
2601,147951.341364705
2602,83248.1872581002
2603,90438.3494670211
2604,87651.4310676878
2605,80259.2560988715
2606,146736.042169845
2607,199426.472884965
2608,197337.923208613
2609,163755.487228045
2610,110716.813977727
2611,124567.913765172
2612,159288.508516923
2613,126244.321442654
2614,121089.310542301
2615,158605.422863744
2616,147998.627491943
2617,174781.432276796
2618,209226.8947839
2619,206336.245570985
2620,183708.155169439
2621,173646.465385505
2622,179882.085047106
2623,238879.335826445
2624,320475.249452015
2625,309114.069742132
2626,173586.650015774
2627,168604.30705116
2628,467639.821833897
2629,502766.760431399
2630,382587.816095835
2631,464214.201843057
2632,408750.327046218
2633,305138.663727396
2634,410921.517215932
2635,157269.132947667
2636,172303.587184097
2637,165000.207095684
2638,262106.990375218
2639,189042.087974107
2640,145478.635705424
2641,103122.32489523
2642,188798.724925645
2643,102757.102282548
2644,117969.468065068
2645,106879.16439644
2646,92663.7638126535
2647,99761.5414923348
2648,140193.269627715
2649,153761.601186328
2650,135607.608239452
2651,140935.915055023
2652,396965.73931096
2653,266142.567175885
2654,261257.00803539
2655,365293.87252355
2656,336566.066015922
2657,353964.675959913
2658,309481.43260654
2659,308915.075687926
2660,366737.371212338
2661,348154.509288086
2662,345061.80473803
2663,300210.062474347
2664,270101.802926306
2665,318711.894591234
2666,289136.080243569
2667,175824.982893796
2668,183178.117701724
2669,192433.967549762
2670,280650.746691979
2671,189314.906441782
2672,201017.479524777
2673,200603.171729948
2674,200097.316287444
2675,178193.048605105
2676,196487.555283478
2677,195034.237284543
2678,253110.515210534
2679,277711.207908463
2680,296340.842737007
2681,371912.537044709
2682,309677.677238256
2683,465244.928966721
2684,320784.419513269
2685,327412.624244855
2686,255218.251678738
2687,293988.341916125
2688,223608.222675458
2689,216954.47923619
2690,385776.338342916
2691,189038.786474311
2692,148484.274911647
2693,207303.891779808
2694,141037.69796144
2695,191422.152789227
2696,183294.245838709
2697,178687.812812961
2698,188162.317830536
2699,177712.62081465
2700,160104.173030003
2701,145126.518032522
2702,108961.794679832
2703,126639.552282955
2704,138805.669511819
2705,112068.434074123
2706,103693.186977907
2707,117289.135430267
2708,131023.343146884
2709,102647.197921188
2710,121849.66054338
2711,295487.270618168
2712,359021.148305298
2713,169249.084534046
2714,150477.298921506
2715,169460.90403011
2716,146664.892428649
2717,193819.066309645
2718,222886.620755311
2719,152278.74021841
2720,173400.755808143
2721,128295.682894561
2722,161789.545790836
2723,146116.199500341
2724,122700.079017624
2725,126045.356623687
2726,149412.41595856
2727,192074.999160434
2728,191547.234406169
2729,144996.059641515
2730,151684.858911797
2731,126815.721252472
2732,133733.465535251
2733,158026.530686727
2734,142084.312745586
2735,136013.570063057
2736,139572.250494258
2737,116884.724003537
2738,140268.217904892
2739,157012.124001553
2740,135957.084586673
2741,142512.651955992
2742,154849.030859071
2743,155449.404367935
2744,157499.740801957
2745,146311.070106134
2746,134691.552068739
2747,151255.451302513
2748,116485.574173977
2749,124092.09581278
2750,138992.254098172
2751,130146.135101188
2752,214037.219654118
2753,144316.453122404
2754,194845.561071983
2755,135189.877677602
2756,93931.0654010685
2757,72563.4054062251
2758,82407.079561262
2759,151747.469999994
2760,116378.270630595
2761,141339.953843823
2762,144675.640493124
2763,181406.414290803
2764,154814.104515046
2765,288303.580370516
2766,128334.712753453
2767,86380.1361004689
2768,132957.6538698
2769,130169.985662255
2770,137196.402391524
2771,105208.637717252
2772,112853.89761691
2773,163884.243970439
2774,145063.786076178
2775,113135.169721506
2776,146699.918456091
2777,142396.438895314
2778,106787.003185821
2779,118431.029521394
2780,100531.484577767
2781,96725.954203682
2782,93347.6109484641
2783,98622.0637899269
2784,125157.865100915
2785,138459.96646922
2786,64895.2428003369
2787,126016.474022748
2788,75612.0727779399
2789,163717.927833452
2790,95646.4690246703
2791,113326.776184345
2792,63512.6549052965
2793,156648.410545474
2794,98074.7047385276
2795,126929.193400741
2796,99380.6160759231
2797,205925.272533814
2798,98994.7807919887
2799,106165.016040396
2800,69890.0008931772
2801,96978.5022558689
2802,128871.265464526
2803,168072.624875418
2804,134836.287206449
2805,96682.2808736075
2806,86470.2531407771
2807,160535.428629765
2808,146272.069476378
2809,134921.203401723
2810,123633.873753632
2811,164336.153511644
2812,157863.192640838
2813,157897.659032186
2814,158695.077547446
2815,93499.3632676199
2816,229128.163167314
2817,151934.315331862
2818,130108.358260494
2819,169930.854600446
2820,134688.723658301
2821,100636.526087447
2822,196211.406917649
2823,308290.425169886
2824,173554.457577066
2825,140409.984511108
2826,139941.911208435
2827,137825.867240785
2828,214957.851087226
2829,226402.987945621
2830,234282.475238662
2831,176087.224831918
2832,247629.582629951
2833,289952.56888347
2834,225499.410696321
2835,227024.765875873
2836,191034.025354906
2837,163935.273345981
2838,150331.631730462
2839,175522.254136913
2840,201796.578512705
2841,201286.152788425
2842,230966.332563927
2843,149059.638894468
2844,179099.805721289
2845,123105.16888542
2846,204666.685729579
2847,204273.721602499
2848,220960.906737056
2849,198607.155478355
2850,277269.853635591
2851,216169.219395829
2852,238895.13394606
2853,235958.326620028
2854,141497.361116012
2855,201313.696273325
2856,204104.796975146
2857,189272.783217682
2858,210320.206047394
2859,116909.752943011
2860,139291.909074193
2861,129344.54695487
2862,193148.50491445
2863,132778.365865184
2864,228533.049746441
2865,147583.112789122
2866,146558.732478075
2867,99141.6053053457
2868,102445.423896687
2869,96923.8669589209
2870,129163.049843018
2871,87494.7497939789
2872,51210.1394069472
2873,102217.371252894
2874,133630.723145817
2875,120763.126265658
2876,163031.601381914
2877,140054.554177452
2878,170335.114895294
2879,136821.13637381
2880,100623.716189145
2881,150536.372627715
2882,173110.866523823
2883,198097.494191315
2884,208916.799226671
2885,187810.304333514
2886,236786.766219565
2887,91960.1178509241
2888,134350.220397949
2889,57218.5607968536
2890,72799.2883486613
2891,134053.277391809
2892,50141.4846815672
2893,87759.1281615704
2894,59906.5814547042
2895,338087.465265747
2896,281131.66000235
2897,206446.705391662
2898,154816.167773326
2899,204933.904860112
2900,164324.2869433
2901,202129.643222505
2902,189181.980415764
2903,312495.491653184
2904,331734.679157408
2905,87447.8164581356
2906,200942.275990787
2907,109611.927951829
2908,126084.714901848
2909,155833.345640198
2910,74952.3293020913
2911,82471.8803493545
2912,151533.857297232
2913,80781.2030627923
2914,78169.5690726326
2915,86976.1121821723
2916,82146.6588954447
2917,166949.738448524
2918,121129.244622229
2919,217039.995255114
